p1\LoginServlet.class
p1\Request.class
p1\SearchRequestServlet.class
p1\LogoutServlet.class
p1\EmployeeDao.class
p1\SessionValidationServlet.class
p1\RequestDao.class
p1\CreateRequestServlet.class
p1\Employee.class
